<?xml version="1.0" encoding="UTF-8" standalone="no"?>
<!-- Generator: Adobe Illustrator 18.0.0, SVG Export Plug-In . SVG Version: 6.00 Build 0)  -->

<svg
   xmlns:dc="http://purl.org/dc/elements/1.1/"
   xmlns:cc="http://creativecommons.org/ns#"
   xmlns:rdf="http://www.w3.org/1999/02/22-rdf-syntax-ns#"
   xmlns:svg="http://www.w3.org/2000/svg"
   xmlns="http://www.w3.org/2000/svg"
   xmlns:xlink="http://www.w3.org/1999/xlink"
   xmlns:sodipodi="http://sodipodi.sourceforge.net/DTD/sodipodi-0.dtd"
   xmlns:inkscape="http://www.inkscape.org/namespaces/inkscape"
   version="1.1"
   id="Layer_1"
   x="0px"
   y="0px"
   viewBox="0 0 365 560"
   enable-background="new 0 0 365 560"
   xml:space="preserve"
   sodipodi:docname="marker_select_danger.svg"
   inkscape:version="0.92.4 5da689c313, 2019-01-14"><metadata
   id="metadata11"><rdf:RDF><cc:Work
       rdf:about=""><dc:format>image/svg+xml</dc:format><dc:type
         rdf:resource="http://purl.org/dc/dcmitype/StillImage" /><dc:title></dc:title></cc:Work></rdf:RDF></metadata><defs
   id="defs9"><linearGradient
   inkscape:collect="always"
   id="linearGradient833"><stop
     style="stop-color:#00000d;stop-opacity:1;"
     offset="0"
     id="stop829" /><stop
     style="stop-color:#00000d;stop-opacity:0;"
     offset="1"
     id="stop831" /></linearGradient>
	
<radialGradient
   inkscape:collect="always"
   xlink:href="#linearGradient833"
   id="radialGradient837"
   cx="182.05002"
   cy="528.1203"
   fx="182.05002"
   fy="528.1203"
   r="171.64211"
   gradientTransform="matrix(1,0,0,0.20330011,0,420.75338)"
   gradientUnits="userSpaceOnUse" /></defs><sodipodi:namedview
   pagecolor="#ffffff"
   bordercolor="#666666"
   borderopacity="1"
   objecttolerance="10"
   gridtolerance="10"
   guidetolerance="10"
   inkscape:pageopacity="0"
   inkscape:pageshadow="2"
   inkscape:window-width="1266"
   inkscape:window-height="972"
   id="namedview7"
   showgrid="false"
   inkscape:zoom="0.1489975"
   inkscape:cx="-175.48283"
   inkscape:cy="204.84914"
   inkscape:window-x="270"
   inkscape:window-y="260"
   inkscape:window-maximized="0"
   inkscape:current-layer="Layer_1" />
<path
   inkscape:connector-curvature="0"
   style="fill:#ff0000;fill-opacity:1;stroke:#000000;stroke-width:19.03370094;stroke-miterlimit:4;stroke-dasharray:none;stroke-opacity:1"
   id="path2"
   d="m 184.57788,493.84129 c 0,0.0894 0.20258,0.26825 0.20258,0.26825 0,0 177.46104,-240.5303 177.46104,-319.57445 C 362.2415,58.204267 272.2955,7.5945476 184.57788,7.4157146 96.860265,7.5945476 6.9142565,58.204267 6.9142565,174.53509 c 0,21.0573 12.6013385,53.57502 31.0900415,89.9527 C 88.917845,364.66331 184.47659,494.10954 184.47659,494.10954 Z M 123.09452,167.91827 c 0,-30.04394 27.55103,-54.36521 61.58465,-54.36521 34.03363,0 61.58466,24.32127 61.58466,54.36521 0,30.04393 -27.65232,54.36522 -61.68595,54.36522 -33.93233,0 -61.48336,-24.32129 -61.48336,-54.36522 z"
   sodipodi:nodetypes="ccscssccsssss" />
<ellipse
   style="opacity:1;fill:url(#radialGradient837);fill-opacity:1;fill-rule:nonzero;stroke:none;stroke-width:7.68741608;stroke-linecap:round;stroke-linejoin:round;stroke-miterlimit:4;stroke-dasharray:none;stroke-opacity:1;paint-order:stroke fill markers"
   id="path827"
   cx="182.05002"
   cy="528.1203"
   rx="171.64211"
   ry="34.894859" /></svg>